{
  "id": "d630926c-0467-4368-98e7-1aad6345b37d",
  "schema": "https://metadata.datadrivendiscovery.org/schemas/v0/pipeline.json",
  "created": "2018-05-31T21:05:25.177854Z",
  "inputs": [
    {
      "name": "inputs"
    }
  ],
  "outputs": [
    {
      "data": "steps.5.produce",
      "name": "Predictions from the input dataset"
    }
  ],
  "steps": [
    {
      "type": "PRIMITIVE",
      "arguments": {
        "inputs": {
          "type": "CONTAINER",
          "data": "inputs.0"
        }
      },
      "outputs": [
        {
          "id": "produce"
        }
      ],
      "primitive": {
        "id": "f31f8c1f-d1c5-43e5-a4b2-2ae4a761ef2e",
        "version": "0.2.0",
        "python_path": "d3m.primitives.datasets.Denormalize",
        "name": "Denormalize datasets",
        "digest": "3021c035e53d84de64466eb0fb157fa568f4d752eec322ee52e9966800421120"
      }
    },
    {
      "type": "PRIMITIVE",
      "arguments": {
        "inputs": {
          "type": "CONTAINER",
          "data": "steps.0.produce"
        }
      },
      "outputs": [
        {
          "id": "produce"
        }
      ],
      "primitive": {
        "id": "4b42ce1e-9b98-4a25-b68e-fad13311eb65",
        "version": "0.2.0",
        "python_path": "d3m.primitives.datasets.DatasetToDataFrame",
        "name": "Dataset to DataFrame converter",
        "digest": "3021c035e53d84de64466eb0fb157fa568f4d752eec322ee52e9966800421120"
      }
    },
    {
      "type": "PRIMITIVE",
      "arguments": {
        "inputs": {
          "type": "CONTAINER",
          "data": "steps.1.produce"
        }
      },
      "outputs": [
        {
          "id": "produce"
        }
      ],
      "primitive": {
        "id": "d510cb7a-1782-4f51-b44c-58f0236e47c7",
        "version": "0.2.0",
        "python_path": "d3m.primitives.data.ColumnParser",
        "name": "Parses strings into their types",
        "digest": "3021c035e53d84de64466eb0fb157fa568f4d752eec322ee52e9966800421120"
      }
    },
    {
      "type": "PRIMITIVE",
      "arguments": {
        "inputs": {
          "type": "CONTAINER",
          "data": "steps.2.produce"
        }
      },
      "outputs": [
        {
          "id": "produce"
        }
      ],
      "primitive": {
        "id": "91fe0a56-f400-483a-8641-4e26d005c621",
        "version": "0.2.0",
        "python_path": "d3m.primitives.data.ExtractAttributes",
        "name": "Extracts attribute columns",
        "digest": "3021c035e53d84de64466eb0fb157fa568f4d752eec322ee52e9966800421120"
      }
    },
    {
      "type": "PRIMITIVE",
      "arguments": {
        "inputs": {
          "type": "CONTAINER",
          "data": "steps.2.produce"
        }
      },
      "outputs": [
        {
          "id": "produce"
        }
      ],
      "primitive": {
        "id": "a7feadd5-997f-4302-bd5d-caa86e7bbd4f",
        "version": "0.2.0",
        "python_path": "d3m.primitives.data.ExtractTargets",
        "name": "Extracts target columns",
        "digest": "3021c035e53d84de64466eb0fb157fa568f4d752eec322ee52e9966800421120"
      }
    },
    {
      "type": "PRIMITIVE",
      "arguments": {
        "inputs": {
          "type": "CONTAINER",
          "data": "steps.3.produce"
        },
        "outputs": {
          "type": "CONTAINER",
          "data": "steps.4.produce"
        }
      },
      "outputs": [
        {
          "id": "produce"
        }
      ],
      "primitive": {
        "id": "1dd82833-5692-39cb-84fb-2455683075f3",
        "version": "0.1.0",
        "python_path": "d3m.primitives.sklearn_wrap.SKRandomForestClassifier",
        "name": "sklearn.ensemble.forest.RandomForestClassifier",
        "digest": "eea2ac30853eb0b5f08a4c23ca611525ff0f58c985375143f17974b46e59003a"
      }
    }
  ]
}
